module release-bot-simple

go 1.21

require (
	github.com/antchfx/htmlquery v1.3.1 // indirect
	github.com/antchfx/xpath v1.3.0 // indirect
	github.com/golang/groupcache v0.0.0-20210331224755-41bb18bfe9da // indirect
	github.com/larksuite/oapi-sdk-go/v3 v3.2.4 // indirect
	golang.org/x/net v0.7.0 // indirect
	golang.org/x/text v0.7.0 // indirect
)
